Division,WeightClassKg,Place,Name,Team,BodyweightKg,Best3SquatKg,Best3BenchKg,Best3DeadliftKg,TotalKg,Equipment,Event,Sex
Boys,55.79,1,Van Phan,Alpine,51.8,138.35,72.57,136.08,347,Single-ply,SBD,M
Boys,51.71,2,Jose Cordero,Abilene,51.17,120.2,74.84,131.54,326.59,Single-ply,SBD,M
Boys,51.71,3,Salvador Antillon,Seminole,49.35,120.2,61.23,131.54,312.98,Single-ply,SBD,M
Boys,51.71,4,Hayden Belongia,Post,50.35,90.72,56.7,102.06,249.48,Single-ply,SBD,M
Boys,51.71,5,Erik Gomez,Post,45.99,90.72,38.56,102.06,231.33,Single-ply,SBD,M
Boys,51.71,6,Josh Dean,Coahoma,36.56,61.23,31.75,74.84,167.83,Single-ply,SBD,M
Boys,55.79,1,Tomas Vega,Alpine,54.98,154.22,86.18,170.1,410.5,Single-ply,SBD,M
Boys,59.87,2,Eric Rivas,Seminole,56.02,142.88,92.99,158.76,394.63,Single-ply,SBD,M
Boys,55.79,3,Tyler Nairn,Big Spring,54.34,145.15,86.18,149.69,381.02,Single-ply,SBD,M
Boys,55.79,4,Reid Clanton,Midland Greenwood,54.25,136.08,81.65,161.03,378.75,Single-ply,SBD,M
Boys,55.79,5,Jay Lomas,Sweetwater,54.43,138.35,88.45,151.95,378.75,Single-ply,SBD,M
Boys,55.79,6,Jaxon Sullivan,Clyde,54.7,145.15,86.18,147.42,378.75,Single-ply,SBD,M
Boys,59.87,7,Sawyer Jenkins,Seminole,56.02,136.08,86.18,142.88,365.14,Single-ply,SBD,M
Boys,55.79,8,Nate Martinez,Loraine,55.07,133.81,70.31,158.76,362.87,Single-ply,SBD,M
Boys,55.79,9,Daniel Valenzuela,Pecos,54.79,136.08,68.04,154.22,358.34,Single-ply,SBD,M
Boys,55.79,10,Christian Perez,Post,53.8,140.61,68.04,142.88,351.53,Single-ply,SBD,M
Boys,55.79,11,Cole Byerly,Midland Greenwood,55.7,127.01,83.91,140.61,351.53,Single-ply,SBD,M
Boys,55.79,12,Zach Flores,Abilene,53.8,117.93,95.25,133.81,347,Single-ply,SBD,M
Boys,59.87,13,Drew Votaw,Merkel,55.88,127.01,70.31,136.08,333.39,Single-ply,SBD,M
Boys,55.79,14,Nick Torres,Merkel,53.98,115.67,70.31,124.74,310.71,Single-ply,SBD,M
Boys,55.79,15,Austin Hodnett,Tuscola Jim Ned,54.61,90.72,68.04,122.47,281.23,Single-ply,SBD,M
Boys,55.79,16,Jordan Wilson,Coahoma,53.43,83.91,58.97,108.86,251.74,Single-ply,SBD,M
Boys,55.79,DQ,Arturo Gonzales #1,Odessa,54.25,,,,,Single-ply,SBD,M
Boys,67.13,1,Justin Workman,Pecos,60.1,147.42,97.52,172.37,417.3,Single-ply,SBD,M
Boys,67.13,2,Tristin Cauthen,Clyde,60.1,140.61,104.33,158.76,403.7,Single-ply,SBD,M
Boys,59.87,3,Josh Martinez,Midland Greenwood,58.79,138.35,86.18,174.63,399.16,Single-ply,SBD,M
Boys,59.87,4,Bray Amos,Sweetwater,59.24,149.69,90.72,149.69,390.09,Single-ply,SBD,M
Boys,59.87,5,Mario Manquero,Garden City,58.24,140.61,86.18,142.88,369.68,Single-ply,SBD,M
Boys,67.13,6,Rodrick Renteria,Pecos,59.96,127.01,97.52,145.15,369.68,Single-ply,SBD,M
Boys,59.87,7,Johnathan Browning,Sweetwater,58.97,133.81,83.91,147.42,365.14,Single-ply,SBD,M
Boys,67.13,8,Chris McPhereson,Coahoma,59.96,111.13,83.91,158.76,353.8,Single-ply,SBD,M
Boys,59.87,9,Trenton Crenshaw,Coahoma,56.88,124.74,81.65,138.35,344.73,Single-ply,SBD,M
Boys,59.87,10,Mark Aldrete,Merkel,59.33,120.2,77.11,142.88,340.19,Single-ply,SBD,M
Boys,59.87,11,Jose Hernandez,Midland Greenwood,58.97,117.93,70.31,149.69,337.93,Single-ply,SBD,M
Boys,59.87,12,Alejo Rodriguez,Post,59.33,111.13,74.84,136.08,322.05,Single-ply,SBD,M
Boys,59.87,13,Cameron Hurd,Midland,59.15,124.74,58.97,136.08,319.78,Single-ply,SBD,M
Boys,59.87,14,Peyton Polston,Tuscola Jim Ned,58.06,108.86,72.57,131.54,312.98,Single-ply,SBD,M
Boys,67.13,15,Till Siebert,Loraine,60.06,92.99,56.7,136.08,285.76,Single-ply,SBD,M
Boys,59.87,DQ,Cole Hunt,Alpine,58.51,,,,,Single-ply,SBD,M
Boys,67.13,1,Bryce DeVore,Hawley,66.68,217.72,102.06,208.65,528.44,Single-ply,SBD,M
Boys,67.13,2,DJ Brown,Post,62.69,183.7,115.67,192.78,492.15,Single-ply,SBD,M
Boys,67.13,3,Dakota Brewster,Clyde,66.04,172.37,108.86,192.78,474,Single-ply,SBD,M
Boys,74.84,4,Juan Losoya,Midland,67.31,199.58,86.18,188.24,474,Single-ply,SBD,M
Boys,67.13,5,Donald Baker,Sweetwater,64.77,176.9,106.59,174.63,458.13,Single-ply,SBD,M
Boys,74.84,6,Kerry Sims,Abilene Cooper,67.36,174.63,102.06,181.44,458.13,Single-ply,SBD,M
Boys,67.13,7,Jon Seabourn,Clyde,61.14,181.44,106.59,156.49,444.52,Single-ply,SBD,M
Boys,67.13,8,Terrance Sims,Abilene Cooper,65.32,163.29,120.2,147.42,430.91,Single-ply,SBD,M
Boys,67.13,9,Mario Ramirez,Odessa,67.13,140.61,90.72,181.44,412.77,Single-ply,SBD,M
Boys,67.13,10,Dustin Gollihar,Clyde,66.5,136.08,102.06,170.1,408.23,Single-ply,SBD,M
Boys,67.13,11,Jonathan Howeth,Abilene,64.41,149.69,92.99,163.29,405.97,Single-ply,SBD,M
Boys,67.13,12,Steven Howard,Post,64.86,147.42,97.52,156.49,401.43,Single-ply,SBD,M
Boys,67.13,13,Austin Marlett,Sweetwater,66.68,149.69,88.45,156.49,394.63,Single-ply,SBD,M
Boys,67.13,14,Tim Garza,Loraine,66.32,145.15,88.45,158.76,392.36,Single-ply,SBD,M
Boys,67.13,15,Nick Nemir,Sweetwater,64.5,145.15,86.18,147.42,378.75,Single-ply,SBD,M
Boys,67.13,16,Rowdy Alls,Roby,66.04,136.08,72.57,170.1,378.75,Single-ply,SBD,M
Boys,67.13,17,Jeff Reese,Tuscola Jim Ned,65.86,151.95,92.99,131.54,376.48,Single-ply,SBD,M
Boys,67.13,18,Billy Allen,Abilene Cooper,61.14,149.69,61.23,158.76,369.68,Single-ply,SBD,M
Boys,67.13,19,Trey Harvey,Sweetwater,66.22,136.08,79.38,142.88,358.34,Single-ply,SBD,M
Boys,67.13,20,Kasey Foster,Big Spring,61.14,122.47,65.77,147.42,335.66,Single-ply,SBD,M
Boys,67.13,21,Bandera Wood,Roby,62.69,124.74,65.77,136.08,326.59,Single-ply,SBD,M
Boys,74.84,1,Clancy Manuel,Hawley,74.48,249.48,124.74,213.19,587.4,Single-ply,SBD,M
Boys,74.84,2,Kneeland Donnelly,Hawley,70.22,226.8,124.74,217.72,569.26,Single-ply,SBD,M
Boys,82.1,3,Luis Juarez,Midland,75.02,210.92,120.2,215.46,546.58,Single-ply,SBD,M
Boys,74.84,4,Ryan Linebaugh,Sweetwater,74.75,213.19,117.93,213.19,544.31,Single-ply,SBD,M
Boys,74.84,5,Trey Cave,Midland Greenwood,71.4,183.7,113.4,190.51,487.61,Single-ply,SBD,M
Boys,74.84,6,Ivan Melendez,Midland,73.3,174.63,106.59,188.24,469.47,Single-ply,SBD,M
Boys,74.84,7,Xzavier Martinez,Midland,72.57,172.37,111.13,176.9,460.4,Single-ply,SBD,M
Boys,74.84,8,Mizael Orona,Odessa,74.66,163.29,111.13,185.97,460.4,Single-ply,SBD,M
Boys,74.84,9,Kodie Ochoa,Midland,70.4,165.56,104.33,188.24,458.13,Single-ply,SBD,M
Boys,74.84,10,Dustin Rea,Midland Greenwood,74.84,170.1,104.33,181.44,455.86,Single-ply,SBD,M
Boys,74.84,11,Darius Collier,Abilene,74.48,188.24,92.99,170.1,451.32,Single-ply,SBD,M
Boys,82.1,12,Caden Dean,Post,75.02,165.56,120.2,161.03,446.79,Single-ply,SBD,M
Boys,74.84,13,Ignacio Rodriguez,Pecos,73.75,158.76,102.06,163.29,424.11,Single-ply,SBD,M
Boys,74.84,14,Ramon Juarez,Seminole,72.03,158.76,88.45,167.83,415.04,Single-ply,SBD,M
Boys,74.84,15,Taylor Robertson,Big Spring,70.13,149.69,90.72,165.56,405.97,Single-ply,SBD,M
Boys,74.84,16,Alan Alaniz,Post,68.58,133.81,99.79,170.1,403.7,Single-ply,SBD,M
Boys,74.84,17,Jacob Howeth,Abilene,73.57,163.29,97.52,142.88,403.7,Single-ply,SBD,M
Boys,74.84,18,Martin Zambrano,Big Spring,68.49,156.49,95.25,149.69,401.43,Single-ply,SBD,M
Boys,74.84,19,Morgan Smith,Tuscola Jim Ned,71.49,145.15,92.99,149.69,387.82,Single-ply,SBD,M
Boys,74.84,20,Colton Honea,Tuscola Jim Ned,69.94,140.61,95.25,147.42,383.29,Single-ply,SBD,M
Boys,74.84,21,Cesar Saldana,Odessa,72.76,138.35,74.84,167.83,381.02,Single-ply,SBD,M
Boys,74.84,22,Jalin Gilbert,Coahoma,73.48,131.54,83.91,163.29,378.75,Single-ply,SBD,M
Boys,74.84,23,Carson Edmonds,Loraine,69.76,102.06,77.11,161.03,340.19,Single-ply,SBD,M
Boys,74.84,24,Calvin Gibbs,Coahoma,69.22,124.74,70.31,140.61,335.66,Single-ply,SBD,M
Boys,74.84,25,Brandon Sutton,Snyder,73.12,104.33,63.5,142.88,310.71,Single-ply,SBD,M
Boys,74.84,26,Joaquein Ramirez,Seminole,68.49,92.99,58.97,127.01,278.96,Single-ply,SBD,M
Boys,74.84,27,Tyler Mitchell,Snyder,70.94,81.65,56.7,113.4,251.74,Single-ply,SBD,M
Boys,74.84,DQ,Angel Rodriquez,Odessa,73.48,,,,,Single-ply,SBD,M
Boys,74.84,DQ,Isaac Stern,Post,69.94,,,,,Single-ply,SBD,M
Boys,82.1,1,Levi Irby,Hawley,81.65,272.16,174.63,229.06,675.85,Single-ply,SBD,M
Boys,82.1,2,Sam Nemir,Sweetwater,80.47,235.87,140.61,231.33,607.81,Single-ply,SBD,M
Boys,82.1,3,Devin Martinez,Clyde,80.56,215.46,117.93,215.46,548.85,Single-ply,SBD,M
Boys,82.1,4,Phillip Fuentes,Midland,79.38,215.46,104.33,226.8,546.58,Single-ply,SBD,M
Boys,82.1,5,Aric Ramzanalli,Hawley,82.01,199.58,127.01,190.51,517.1,Single-ply,SBD,M
Boys,82.1,6,George Klassen,Seminole,80.29,183.7,108.86,206.38,498.95,Single-ply,SBD,M
Boys,82.1,7,Austin Rain,Clyde,79.29,181.44,108.86,204.12,494.42,Single-ply,SBD,M
Boys,82.1,8,Josh Helzer,Hawley,81.19,213.19,102.06,174.63,489.88,Single-ply,SBD,M
Boys,82.1,9,Aberiel Martinez,Abilene,82.1,192.78,117.93,170.1,480.81,Single-ply,SBD,M
Boys,82.1,10,Derek Fitzpatrick,Midland Greenwood,82.01,181.44,97.52,195.04,474,Single-ply,SBD,M
Boys,82.1,11,Branson Kennedy,Coahoma,78.11,174.63,90.72,195.04,460.4,Single-ply,SBD,M
Boys,82.1,12,Rickey Harcrow,Midland Greenwood,81.83,170.1,104.33,181.44,455.86,Single-ply,SBD,M
Boys,82.1,13,Cody Huelsbery,Alpine,77.47,181.44,104.33,167.83,453.59,Single-ply,SBD,M
Boys,82.1,14,Dalton Driver,Seminole,79.38,176.9,88.45,181.44,446.79,Single-ply,SBD,M
Boys,82.1,15,Nicholas Navarette,Pecos,78.29,154.22,95.25,181.44,430.91,Single-ply,SBD,M
Boys,82.1,16,Bryan Smith,Post,75.66,142.88,106.59,170.1,419.57,Single-ply,SBD,M
Boys,82.1,17,Hunter Gibson,Tuscola Jim Ned,81.83,149.69,86.18,158.76,394.63,Single-ply,SBD,M
Boys,82.1,DQ,Clayton Clair,Odessa,81.47,,,,,Single-ply,SBD,M
Boys,82.1,DQ,Joseph Melendez,Coahoma,81.19,210.92,108.86,,,Single-ply,SBD,M
Boys,89.81,1,Austin Sellers,Hawley,89.36,272.16,208.65,254.01,734.82,Single-ply,SBD,M
Boys,89.81,2,Lionel Sanchez,Midland,88.54,208.65,133.81,240.4,582.87,Single-ply,SBD,M
Boys,89.81,3,Sergio Leyva,Odessa,89.18,222.26,140.61,215.46,578.33,Single-ply,SBD,M
Boys,89.81,4,Quinn Harrell,Abilene Cooper,86.36,215.46,145.15,208.65,569.26,Single-ply,SBD,M
Boys,89.81,5,Alex Garcia,Sweetwater,84.19,197.31,115.67,244.94,557.92,Single-ply,SBD,M
Boys,89.81,6,Shelby Mobley,Odessa,88.99,213.19,129.27,215.46,557.92,Single-ply,SBD,M
Boys,89.81,7,Justin Thornton,Pecos,83.01,208.65,120.2,226.8,555.65,Single-ply,SBD,M
Boys,89.81,8,Nathaniel Gill,Post,85.55,201.85,129.27,213.19,544.31,Single-ply,SBD,M
Boys,99.79,9,Joey Haddad,Clyde,89.9,204.12,124.74,195.04,523.9,Single-ply,SBD,M
Boys,89.81,10,Miguel Espinoza,Abilene,89.27,190.51,120.2,188.24,498.95,Single-ply,SBD,M
Boys,89.81,11,Anthony Palacios,Sweetwater,88,188.24,104.33,190.51,483.08,Single-ply,SBD,M
Boys,89.81,12,Jahari Vanover,Big Spring,87.36,163.29,102.06,170.1,435.45,Single-ply,SBD,M
Boys,89.81,13,Jerrick Mata,Pecos,84.64,149.69,97.52,149.69,396.89,Single-ply,SBD,M
Boys,99.79,1,Tanner Fannin,Clyde,98.88,226.8,124.74,229.06,580.6,Single-ply,SBD,M
Boys,99.79,2,Kenderick Hunter,Abilene,94.17,215.46,124.74,204.12,544.31,Single-ply,SBD,M
Boys,109.77,3,Oscar Valdez,Clyde,99.88,210.92,122.47,192.78,526.17,Single-ply,SBD,M
Boys,99.79,4,Kendall Rea,Sweetwater,96.34,192.78,129.27,195.04,517.1,Single-ply,SBD,M
Boys,99.79,5,Michael Woods,Merkel,98.7,201.85,102.06,210.92,514.83,Single-ply,SBD,M
Boys,99.79,6,Kyle Treadwell,Pecos,98.7,185.97,124.74,201.85,512.56,Single-ply,SBD,M
Boys,99.79,7,Mason Gonzalez,Roby,94.62,174.63,124.74,174.63,474,Single-ply,SBD,M
Boys,99.79,8,Eldon Niblett,Midland Greenwood,97.98,208.65,102.06,163.29,474,Single-ply,SBD,M
Boys,99.79,9,Zack Smurphat,Tuscola Jim Ned,90.26,181.44,104.33,174.63,460.4,Single-ply,SBD,M
Boys,99.79,DQ,Ryan Childress,Abilene,95.35,,,,,Single-ply,SBD,M
Boys,109.77,1,Daniel Montez,Roby,108.77,272.16,181.44,226.8,680.39,Single-ply,SBD,M
Boys,109.77,2,Mateo Gonzales,Sweetwater,102.87,251.74,163.29,254.01,669.05,Single-ply,SBD,M
Boys,109.77,3,Shaquille Walters,Midland Greenwood,100.79,233.6,129.27,240.4,603.28,Single-ply,SBD,M
Boys,109.77,4,Austin Betancourt,Seminole,109.77,226.8,136.08,204.12,566.99,Single-ply,SBD,M
Boys,109.77,5,David Salazar,Abilene Cooper,105.14,204.12,149.69,199.58,553.38,Single-ply,SBD,M
Boys,109.77,6,Zach Rivas,Roby,107.5,195.04,136.08,192.78,523.9,Single-ply,SBD,M
Boys,109.77,7,John Flores,Rotan,107.86,199.58,127.01,195.04,521.63,Single-ply,SBD,M
Boys,109.77,8,Eric Prado,Abilene,101.88,181.44,140.61,190.51,512.56,Single-ply,SBD,M
Boys,109.77,9,Russell Holland,Clyde,102.33,192.78,124.74,195.04,512.56,Single-ply,SBD,M
Boys,109.77,10,Nick Conner,Big Spring,106.14,149.69,102.06,158.76,410.5,Single-ply,SBD,M
Boys,109.77,11,Aaron Webb,Snyder,107.68,113.4,65.77,136.08,315.25,Single-ply,SBD,M
Boys,109.77,DQ,Zak Walton,Coahoma,107.86,183.7,113.4,,,Single-ply,SBD,M
Boys,124.74,1,Eric Villegas,Midland,111.31,249.48,149.69,215.46,614.62,Single-ply,SBD,M
Boys,124.74,2,Riley Braunech,Roby,114.21,238.14,117.93,206.38,562.45,Single-ply,SBD,M
Boys,124.74,3,Charles Hunt,Midland,118.48,204.12,142.88,204.12,551.11,Single-ply,SBD,M
Boys,124.74,4,Jeremy Garza,Snyder,117.84,204.12,142.88,197.31,544.31,Single-ply,SBD,M
Boys,124.74,5,Aric Rutledge,Big Spring,116.85,199.58,115.67,208.65,523.9,Single-ply,SBD,M
Boys,124.74,6,Hugo Sanchez,Odessa,115.21,204.12,115.67,201.85,521.63,Single-ply,SBD,M
Boys,124.74,7,James Slade,Odessa,110.45,199.58,104.33,208.65,512.56,Single-ply,SBD,M
Boys,124.74,8,Chase Saunders,Sweetwater,118.3,195.04,136.08,181.44,512.56,Single-ply,SBD,M
Boys,124.74,9,Josh Hunter,Abilene,118.3,206.38,99.79,192.78,498.95,Single-ply,SBD,M
Boys,124.74,10,Angel Caballero,Sweetwater,124.74,199.58,115.67,181.44,496.68,Single-ply,SBD,M
Boys,124.74,11,Eduardo Lizalde,Odessa,115.39,197.31,104.33,154.22,455.86,Single-ply,SBD,M
Boys,124.74,12,Aj Martinez,Big Spring,124.47,161.03,92.99,167.83,421.84,Single-ply,SBD,M
Boys,124.74,13,Dillon Ogle,Big Spring,116.57,158.76,92.99,140.61,392.36,Single-ply,SBD,M
Boys,124.74,14,Brenon Bruson,Snyder,110.68,61.23,74.84,111.13,247.21,Single-ply,SBD,M
Boys,124.74+,DQ,Eric Rodriquez,Big Spring,124.83,136.08,77.11,,,Single-ply,SBD,M
Boys,124.74+,1,Sawyer Roberts,Big Spring,164.56,283.5,149.69,238.14,671.32,Single-ply,SBD,M
Boys,124.74+,2,Jesse Ramirez,Odessa,145.97,244.94,149.69,226.8,621.42,Single-ply,SBD,M
Boys,124.74+,3,Adrian Adame,Midland,141.52,238.14,140.61,208.65,587.4,Single-ply,SBD,M
Boys,124.74+,4,Cameron Wesley,Midland,126.19,249.48,131.54,192.78,573.79,Single-ply,SBD,M
Boys,124.74+,5,Conner Willis,Tuscola Jim Ned,125.65,215.46,111.13,204.12,530.7,Single-ply,SBD,M
Boys,124.74+,6,Trey Thomas,Merkel,138.8,161.03,102.06,154.22,417.3,Single-ply,SBD,M
Boys,124.74+,DQ,Jordan Copeland,Midland,142.79,222.26,127.01,,,Single-ply,SBD,M
Boys,,NS,Jimmy Miller,Alpine,,,,,,Single-ply,SBD,M
