Name,Team,Sex,Division,BodyweightKg,WeightClassKg,Squat1Kg,Squat2Kg,Squat3Kg,Best3SquatKg,Bench1Kg,Bench2Kg,Bench3Kg,Best3BenchKg,Deadlift1Kg,Deadlift2Kg,Deadlift3Kg,Best3DeadliftKg,TotalKg,Place,Event,Equipment,BirthDate
June Stamp,GL,F,F-C-M1,46,47,75,80,82.5,82.5,40,-42.5,-42.5,40,92.5,97.5,102.5,102.5,225,1,SBD,Raw,
Louise Sinniah-Burr,GL,F,F-C-Open,51.5,52,90,97.5,102.5,102.5,60,-65,-65,60,135,142.5,150,150,312.5,1,SBD,Raw,
Sofia Rufus,SW,F,F-C-M1,51.3,52,102.5,110,-115,110,50,55,-57.5,55,110,120,125,125,290,2,SBD,Raw,
Angelina Lane,Wa,F,F-C-M1,50.5,52,80,85,90,90,52.5,-57.5,-57.5,52.5,110,120,-127.5,120,262.5,3,SBD,Raw,
Jenny Hunter,EM,F,F-C-M2,52,52,65,75,82.5,82.5,60,65,67.5,67.5,115,125,-130,125,275,1,SBD,Raw,
Linda Kaminski,GL,F,F-C-M3,49.3,52,95,100,-102.5,100,25,,,25,107.5,112.5,115,115,240,1,SBD,Raw,
Helen Hughes #1,SM,F,F-C-M1,56.4,57,110,115,120,120,75,80,-82.5,80,130,140,-150,140,340,1,SBD,Raw,
Karen Burns,NI,F,F-C-M1,56.1,57,90,92.5,95,95,47.5,50,52.5,52.5,125,130,135,135,282.5,2,SBD,Raw,
Samantha Devlin,Sc,F,F-C-M2,55,57,70,75,77.5,77.5,40,42.5,45,45,90,100,107.5,107.5,230,1,SBD,Raw,
Sarah Butcher,SM,F,F-C-M3,55.7,57,75,-80,-80,75,35,-40,40,40,100,105,110,110,225,1,SBD,Raw,
Abi Graham,EM,F,F-C-Open,62.6,63,120,130,140,140,80,85,87.5,87.5,160,170,182.5,182.5,410,1,SBD,Raw,
Beverley Rodgers,SM,F,F-C-M1,63,63,115,125,-130,125,77.5,85,87.5,87.5,132.5,-142.5,-142.5,132.5,345,2,SBD,Raw,
Emma Stott,NW,F,F-C-M1,61.8,63,-110,110,-115,110,65,67.5,-70,67.5,140,152.5,155,155,332.5,3,SBD,Raw,
Sharon Holmes #1,NW,F,F-C-M1,62.2,63,122.5,127.5,-132.5,127.5,60,65,-70,65,125,135,-140,135,327.5,4,SBD,Raw,
Galit Goldshmid,SM,F,F-C-M1,62.9,63,-97.5,97.5,-110,97.5,72.5,77.5,-80,77.5,130,-140,-140,130,305,5,SBD,Raw,
Diane Stockwell,GL,F,F-C-M2,61.6,63,97.5,102.5,-105,102.5,60,65,-67.5,65,112.5,117.5,122.5,122.5,290,1,SBD,Raw,
Alison Jones,GL,F,F-C-M2,61.3,63,92.5,97.5,-102.5,97.5,52.5,-55,-55,52.5,120,127.5,-132.5,127.5,277.5,2,SBD,Raw,
Sue Narey,YNE,F,F-C-M2,61,63,95,102.5,-107.5,102.5,52.5,-55,-55,52.5,-105,115,120,120,275,3,SBD,Raw,
Eno Majomi,GL,F,F-C-M1,71.6,72,157.5,165,172.5,172.5,80,87.5,-92.5,87.5,160,170,182.5,182.5,442.5,1,SBD,Raw,
Emma Taylor #1,YNE,F,F-C-M1,69.5,72,120,122.5,137.5,137.5,65,67.5,-70,67.5,160,170,177.5,177.5,382.5,2,SBD,Raw,
Nina Cambatta,EM,F,F-C-Open,69.7,72,122.5,130,135,135,70,75,77.5,77.5,160,-170,170,170,382.5,3,SBD,Raw,
Wendie Kirkland,NM,F,F-C-M1,71.2,72,117.5,125,-132.5,125,70,75,-80,75,130,137.5,-145,137.5,337.5,4,SBD,Raw,
Sue Burrows-Meaney,SE,F,F-C-M1,71.7,72,120,127.5,132.5,132.5,55,60,62.5,62.5,130,137.5,-145,137.5,332.5,5,SBD,Raw,
Rowan Smith,SM,F,F-C-M1,71.6,72,95,105,-110,105,57.5,60,62.5,62.5,120,130,-137.5,130,297.5,6,SBD,Raw,
Paula Gentle,EM,F,F-C-M1,64.2,72,95,105,-107.5,105,50,55,-57.5,55,125,130,-135,130,290,7,SBD,Raw,
Laura Porter,GL,F,F-C-M1,70.4,72,-92.5,95,100,100,52.5,55,-57.5,55,120,127.5,-130,127.5,282.5,8,SBD,Raw,
Carrie Wilks,NM,F,F-C-M1,71.3,72,80,85,-90,85,-50,52.5,55,55,112.5,117.5,122.5,122.5,262.5,9,SBD,Raw,
Joy Mineo,NM,F,F-C-M2,67,72,100,110,115,115,70,72.5,77.5,77.5,152.5,160,167.5,167.5,360,1,SBD,Raw,
Lynda Banks,Sc,F,F-C-M2,69.6,72,102.5,110,115,115,57.5,62.5,-65,62.5,135,145,-150,145,322.5,2,SBD,Raw,
Allison Gibson,Sc,F,F-C-M2,70,72,95,102.5,107.5,107.5,45,50,52.5,52.5,135,142.5,147.5,147.5,307.5,3,SBD,Raw,
Gloria Fitzpatrick,SE,F,F-C-M2,71.6,72,100,105,107.5,107.5,55,-60,-60,55,127.5,137.5,-145,137.5,300,4,SBD,Raw,
Rita Shergold,SM,F,F-C-M2,69.2,72,105,-107.5,-107.5,105,60,62.5,65,65,112.5,117.5,127.5,127.5,297.5,5,SBD,Raw,
Sue Aldred,YNE,F,F-C-M2,69.1,72,85,-95,95,95,52.5,55,-57.5,55,100,107.5,115,115,265,6,SBD,Raw,
Angela Houldershaw,NM,F,F-C-M2,72,72,80,85,87.5,87.5,42.5,47.5,50,50,110,120,125,125,262.5,7,SBD,Raw,
Julie Rose,NM,F,F-C-M2,71.7,72,82.5,87.5,92.5,92.5,42.5,47.5,50,50,100,105,107.5,107.5,250,8,SBD,Raw,
Henry Chay,NW,M,M-C-M2,58.2,59,130,140,145,145,75,80,-82.5,80,170,-190,-190,170,395,1,SBD,Raw,
Richard Gould,NW,M,M-C-M2,57.7,59,92.5,97.5,102.5,102.5,62.5,65,67.5,67.5,125,132.5,137.5,137.5,307.5,2,SBD,Raw,
David Brown,EM,M,M-C-M3,58.9,59,85,90,95,95,67.5,70,72.5,72.5,122.5,127.5,132.5,132.5,300,1,SBD,Raw,
Greig Murray,NI,M,M-C-M1,64.5,66,155,165,167.5,167.5,115,120,-122.5,120,210,220,227.5,227.5,515,1,SBD,Raw,
Roger Hamilton-Smith,SM,M,M-C-M1,65.4,66,147.5,165,175,175,97.5,112.5,115,115,202.5,217.5,225,225,515,2,SBD,Raw,
David Gray,WM,M,M-C-M2,65.1,66,150,165,175,175,122.5,127.5,132.5,132.5,210,230,245,245,552.5,1,SBD,Raw,
Shaun Bateman,SW,M,M-C-M2,64.1,66,150,160,162.5,162.5,115,120,-122.5,120,185,195,-197.5,195,477.5,2,SBD,Raw,
Ted Byrne,NM,M,M-C-M3,64.1,66,125,132.5,140,140,77.5,82.5,85,85,170,-190,-190,170,395,1,SBD,Raw,
William Taylor,NM,M,M-C-M3,65.5,66,115,-125,-125,115,82.5,87.5,90,90,125,135,142.5,142.5,347.5,2,SBD,Raw,
Malcolm Bainbridge,SE,M,M-C-M4,64.8,66,90,100,110,110,70,75,77.5,77.5,160,170,-180,170,357.5,1,SBD,Raw,
Martin Smith,SW,M,M-C-M1,71.3,74,150,160,-170,160,120,130,-135,130,200,210,215,215,505,1,SBD,Raw,
Bernie McGurk,Sc,M,M-C-M2,73.4,74,160,167.5,175,175,102.5,110,-112.5,110,215,-220,-220,215,500,1,SBD,Raw,
Allen Ottolangui,EM,M,M-C-M2,73.8,74,160,175,-187.5,175,87.5,95,-100,95,180,-192.5,-192.5,180,450,2,SBD,Raw,
John Laird,Wa,M,M-C-M2,71.6,74,125,135,-140,135,105,-110,-110,105,140,155,160,160,400,3,SBD,Raw,
Kevin Payne #2,SE,M,M-C-M3,69.6,74,100,110,115,115,75,80,85,85,170,185,195,195,395,1,SBD,Raw,
Ernie Parkes,SE,M,M-C-M4,73.3,74,130,142.5,150,150,75,80,85,85,200,212.5,,212.5,447.5,1,SBD,Raw,
David O'Brien,YNE,M,M-C-M1,82.5,83,180,,-182.5,180,130,135,-137.5,135,210,225,-230,225,540,1,SBD,Raw,
Jasvinder Singh Cheema,WM,M,M-C-M1,81.1,83,160,170,180,180,140,147.5,152.5,152.5,190,205,-210,205,537.5,2,SBD,Raw,
Andrew Catley,EM,M,M-C-M1,82.6,83,172.5,-177.5,-177.5,172.5,125,-130,130,130,200,210,220,220,522.5,3,SBD,Raw,
Toby Sharp,EM,M,M-C-M1,81.3,83,175,182.5,-187.5,182.5,105,110,-115,110,210,217.5,225,225,517.5,4,SBD,Raw,
Glen Blacklock,YNE,M,M-C-M1,82.3,83,165,175,182.5,182.5,112.5,117.5,120,120,180,192.5,200,200,502.5,5,SBD,Raw,
David Clifford,NW,M,M-C-M2,82.4,83,190,200,207.5,207.5,120,127.5,130,130,230,240,245,245,582.5,1,SBD,Raw,
Alan Joseph,GL,M,M-C-M2,82.5,83,185,195,205,205,120,122.5,125,125,225,235,250,250,580,2,SBD,Raw,
Jenni Sherwood,WM,F,F-C-M1,81.5,84,135,142.5,147.5,147.5,72.5,77.5,80,80,170,180,185,185,412.5,1,SBD,Raw,
Kyla Mulholland,NI,F,F-C-M1,84,84,130,135,-140,135,77.5,82.5,85,85,150,155,160,160,380,2,SBD,Raw,
Verena Manchip,SM,F,F-C-M1,84,84,130,140,147.5,147.5,57.5,62.5,-67.5,62.5,160,-170,-172.5,160,370,3,SBD,Raw,
Adele Fothersgill,NW,F,F-C-M1,82.2,84,115,-125,-125,115,65,67.5,-70,67.5,120,125,130,130,312.5,4,SBD,Raw,
Jodi Weaver,NM,F,F-C-M1,83.7,84,115,120,125,125,55,57.5,60,60,112.5,117.5,122.5,122.5,307.5,5,SBD,Raw,
Jean Maton,SM,F,F-C-M2,82.6,84,115,125,-127.5,125,72.5,77.5,80,80,140,150,-155,150,355,1,SBD,Raw,
Karen Houghton,SW,F,F-C-M2,80.3,84,102.5,107.5,110,110,50,-55,55,55,110,120,125,125,290,2,SBD,Raw,
Tracy O'Callaghan,Wa,F,F-C-Open,97.7,84+,172.5,180,-187.5,180,77.5,82.5,85,85,180,187.5,192.5,192.5,457.5,1,SBD,Raw,
Jo Whiteley,NW,F,F-C-M1,116.1,84+,-165,172.5,-180,172.5,82.5,85,87.5,87.5,175,182.5,-185,182.5,442.5,2,SBD,Raw,
Kelly Phasey,WM,F,F-C-M1,121.7,84+,160,170,175,175,92.5,97.5,-100,97.5,157.5,165,-172.5,165,437.5,3,SBD,Raw,
Sarah Marsden,EM,F,F-C-M1,108.5,84+,165,172.5,175,175,85,90,92.5,92.5,155,167.5,-170,167.5,435,4,SBD,Raw,
Siobhan Taylor,EM,F,F-C-Open,95.4,84+,120,130,135,135,60,-70,70,70,140,152.5,160,160,365,5,SBD,Raw,
Emily Portlock,SW,F,F-C-M1,117.8,84+,122.5,132.5,142.5,142.5,47.5,55,-62.5,55,140,150,155,155,352.5,6,SBD,Raw,
Kelly Tuson,SE,F,F-C-M1,86.6,84+,110,120,130,130,60,-65,65,65,120,130,140,140,335,7,SBD,Raw,
Carol Taylor,Wa,F,F-C-M1,101.4,84+,117.5,125,130,130,52.5,-55,-55,52.5,127.5,135,140,140,322.5,8,SBD,Raw,
Betty Gray,SE,F,F-C-M2,99.9,84+,-135,-135,135,135,62.5,67.5,70,70,187.5,197.5,,197.5,402.5,1,SBD,Raw,
Libby Blair,NI,F,F-C-M2,115.7,84+,135,142.5,150,150,67.5,-72.5,72.5,72.5,170,180,-185,180,402.5,2,SBD,Raw,
Jackie Blasbery,Gu,F,F-C-M2,85.8,84+,115,125,130,130,72.5,77.5,82.5,82.5,150,160,165,165,377.5,3,SBD,Raw,
Karen Simpson,NM,F,F-C-M2,102.5,84+,115,120,125,125,42.5,45,47.5,47.5,132.5,140,145,145,317.5,4,SBD,Raw,
Rachael Ward,NM,F,F-C-M2,93.6,84+,90,95,100,100,50,52.5,55,55,100,107.5,112.5,112.5,267.5,5,SBD,Raw,
Ian Shaw,NW,M,M-C-M1,90.6,93,212.5,220,225,225,117.5,122.5,-127.5,122.5,-260,270,280,280,627.5,1,SBD,Raw,
Sheridan Wray,YNE,M,M-C-M1,92.8,93,180,192.5,200,200,170,182.5,185,185,225,240,-250,240,625,2,SBD,Raw,
Matt Lingard,WM,M,M-C-M1,92.2,93,190,210,220,220,140,150,157.5,157.5,200,220,,220,597.5,3,SBD,Raw,
Drew Blackman,SE,M,M-C-Open,92.9,93,185,200,210,210,140,-147.5,-152.5,140,220,235,-242.5,235,585,4,SBD,Raw,
Richard Parish,YNE,M,M-C-M1,92.2,93,175,187.5,195,195,100,105,107.5,107.5,220,232.5,-237.5,232.5,535,5,SBD,Raw,
Robert Rodney,GL,M,M-C-M2,85.2,93,180,200,,200,120,,,120,230,265,,265,585,1,SBD,Raw,
William Westwater,WM,M,M-C-M2,92,93,162.5,172.5,182.5,182.5,107.5,112.5,117.5,117.5,195,205,,205,505,2,SBD,Raw,
Carl Thomas,NM,M,M-C-M2,88.4,93,145,152.5,157.5,157.5,87.5,95,100,100,190,202.5,-210,202.5,460,3,SBD,Raw,
Andy Bonner,SM,M,M-C-M3,92.1,93,160,,,160,100,120,,120,220,255,,255,535,1,SBD,Raw,
Clive Lingard,WM,M,M-C-M4,92.2,93,90,100,-105,100,95,-100,-102.5,95,130,150,-170,150,345,1,SBD,Raw,
Thomas Celestine,GL,M,M-C-M1,100.8,105,235,242.5,247.5,247.5,115,120,-125,120,280,-300,,280,647.5,1,SBD,Raw,
Wayne Phillips,NW,M,M-C-M2,103.5,105,-190,190,200,200,155,160,-165,160,230,250,-265,250,610,1,SBD,Raw,
Chris Cooper,YNE,M,M-C-M2,103.6,105,180,190,200,200,145,150,152.5,152.5,205,220,230,230,582.5,2,SBD,Raw,
Darren Lloyd,NM,M,M-C-M2,104.9,105,170,-185,185,185,155,-160,-160,155,200,220,225,225,565,3,SBD,Raw,1967-10-05
Michael Denzil,GL,M,M-C-M2,100.8,105,155,165,172.5,172.5,97.5,107.5,112.5,112.5,175,187.5,200,200,485,4,SBD,Raw,
Darren Greville,EM,M,M-C-M1,115.8,120,215,230,232.5,232.5,157.5,167.5,170,170,220,240,252.5,252.5,655,1,SBD,Raw,
Steve Gott,YNE,M,M-C-M1,119.6,120,205,220,232.5,232.5,157.5,167.5,175,175,210,225,-240,225,632.5,2,SBD,Raw,
Chris Godfrey,YNE,M,M-C-M1,115.8,120,215,225,-230,225,-130,130,-137.5,130,237.5,247.5,-252.5,247.5,602.5,3,SBD,Raw,
Alistair Murdoch,GL,M,M-C-M2,110.2,120,215,232.5,240,240,190,200,205,205,240,255,,255,700,1,SBD,Raw,
David Charnock,NW,M,M-C-M2,117.3,120,215,230,-245,230,125,135,-140,135,230,250,260,260,625,2,SBD,Raw,
Ian Finch,EM,M,M-C-M3,117.5,120,170,180,,180,115,125,,125,200,215,,215,520,1,SBD,Raw,
Chris Gladding,EM,M,M-C-M4,111.6,120,132.5,142.5,-152.5,142.5,105,112.5,-117.5,112.5,160,170,180,180,435,1,SBD,Raw,
Christopher Baker,YNE,M,M-C-M1,141.9,120+,245,262.5,267.5,267.5,210,220,-225,220,265,280,305,305,792.5,1,SBD,Raw,
James Brincat-Smith,NM,M,M-C-M1,196.6,120+,-260,260,-272.5,260,132.5,140,-147.5,140,240,260,,260,660,2,SBD,Raw,
Andrew Rodney,EM,M,M-C-M2,120.5,120+,180,,,180,150,160,170,170,220,250,265,265,615,1,SBD,Raw,
Bob Sadler,Wa,M,M-C-M2,129.2,120+,-210,210,,210,120,130,140,140,220,240,-265,240,590,2,SBD,Raw,
