Name,WeightClassKg,Division,Sex,Best3SquatKg,Best3BenchKg,Best3DeadliftKg,TotalKg,Event,Equipment,Place
J. Miller #8,48,Open,F,47.5,40,65,152.5,SBD,Single-ply,1
D. Novak,67.5,Open,F,100,60,110,270,SBD,Single-ply,1
T. Knight,75,Open,F,142.5,87.5,150,380,SBD,Single-ply,1
C. Caffrey,75,Open,F,110,57.5,137.5,305,SBD,Single-ply,2
K. Le,75,Open,M,207.5,155,247.5,610,SBD,Single-ply,1
B. McCloud,75,Open,M,187.5,130,227.5,545,SBD,Single-ply,2
D. Nelson,82.5,Open,M,260,192.5,227.5,680,SBD,Single-ply,1
T. Washington,82.5,Open,M,200,115,267.5,582.5,SBD,Single-ply,2
Bob Boyles,90,Open,M,260,170,260,690,SBD,Single-ply,1
R. Medlin,90,Open,M,265,152.5,265,682.5,SBD,Single-ply,2
N. Canterwell,90,Open,M,260,157.5,260,677.5,SBD,Single-ply,3
B. Bales,90,Open,M,255,160,245,660,SBD,Single-ply,4
M. Medlin,90,Open,M,230,125,227.5,582.5,SBD,Single-ply,5
David Medlin,100,Open,M,267.5,167.5,280,715,SBD,Single-ply,1
Larry Flynn,100,Open,M,277.5,162.5,260,700,SBD,Single-ply,2
M. Larson,100,Open,M,,,,,SBD,Single-ply,DQ
Jay Desch,110,Open,M,345,215,325,885,SBD,Single-ply,1
R. Young,110,Open,M,285,197.5,320,802.5,SBD,Single-ply,2
Ken Ufford,110,Open,M,265,205,325,795,SBD,Single-ply,3
J. Kruger,110,Open,M,305,170,302.5,777.5,SBD,Single-ply,4
Jim Duree,110,Open,M,295,142.5,272.5,710,SBD,Single-ply,5
M. Walker #3,110,Open,M,272.5,160,260,692.5,SBD,Single-ply,6
M. Lake,125,Open,M,317.5,205,275,797.5,SBD,Single-ply,1
M. Hedges,67.5,Below Class 2,M,142.5,97.5,175,415,SBD,Single-ply,1
G. Acinger,75,Below Class 2,M,175,130,207.5,512.5,SBD,Single-ply,1
A. Stahmer,75,Below Class 2,M,155,117.5,205,477.5,SBD,Single-ply,1
R. Provost,75,Below Class 2,M,137.5,107.5,192.5,437.5,SBD,Single-ply,1
R. Langendoerfer,82.5,Below Class 2,M,172.5,142.5,237.5,552.5,SBD,Single-ply,1
T. Cashman,82.5,Below Class 2,M,160,120,205,485,SBD,Single-ply,1
P. Barger,82.5,Below Class 2,M,147.5,127.5,180,455,SBD,Single-ply,1
S. Ulses,82.5,Below Class 2,M,140,112.5,170,422.5,SBD,Single-ply,1
S. Still,82.5,Below Class 2,M,145,97.5,110,352.5,SBD,Single-ply,1
T. Blasingham,82.5,Below Class 2,M,,,,,SBD,Single-ply,DQ
D. Borrink,90,Below Class 2,M,247.5,172.5,272.5,692.5,SBD,Single-ply,1
B. Bales,90,Below Class 2,M,255,160,245,660,SBD,Single-ply,1
L. Washington,90,Below Class 2,M,182.5,140,227.5,550,SBD,Single-ply,1
Larry Flynn,100,Below Class 2,M,277.5,162.5,260,700,SBD,Single-ply,1
P. Reiff,100,Below Class 2,M,227.5,167.5,227.5,622.5,SBD,Single-ply,1
E. White,100,Below Class 2,M,222.5,147.5,250,620,SBD,Single-ply,1
M. Trefz,100,Below Class 2,M,167.5,110,175,452.5,SBD,Single-ply,1
M. Larson,100,Below Class 2,M,,,,,SBD,Single-ply,DQ
J. Payne,110,Below Class 2,M,275,182.5,250,707.5,SBD,Single-ply,1
M. Kelly,110,Below Class 2,M,262.5,165,255,682.5,SBD,Single-ply,1
T. Shortell,110,Below Class 2,M,60,195,60,315,SBD,Single-ply,1
Bill Corum,125,Below Class 2,M,240,132.5,242.5,615,SBD,Single-ply,1
M. Drybread,125,Below Class 2,M,195,157.5,240,592.5,SBD,Single-ply,1
T. Berry,75,ADFPA Open,F,102.5,70,127.5,300,SBD,Single-ply,1
Don Moore,56,ADFPA Open,M,170,107.5,187.5,465,SBD,Single-ply,1
D. Longbine,60,ADFPA Open,M,135,102.5,155,392.5,SBD,Single-ply,1
A. Stout,67.5,ADFPA Open,M,145,120,182.5,447.5,SBD,Single-ply,1
K. Le,75,ADFPA Open,M,207.5,155,247.5,610,SBD,Single-ply,1
J. McLeod,82.5,ADFPA Open,M,250,170,252.5,672.5,SBD,Single-ply,1
T. Reynolds,82.5,ADFPA Open,M,210,155,250,615,SBD,Single-ply,2
C. Ebert,82.5,ADFPA Open,M,142.5,142.5,200,485,SBD,Single-ply,3
B. Swanson,82.5,ADFPA Open,M,162.5,95,192.5,450,SBD,Single-ply,4
S. Still,82.5,ADFPA Open,M,145,97.5,110,352.5,SBD,Single-ply,5
Bob Boyles,90,ADFPA Open,M,260,170,260,690,SBD,Single-ply,1
D. Connelly,90,ADFPA Open,M,227.5,142.5,250,620,SBD,Single-ply,2
C. Laws,100,ADFPA Open,M,237.5,157.5,250,645,SBD,Single-ply,1
C. Jack,100,ADFPA Open,M,210,157.5,237.5,605,SBD,Single-ply,2
B. Drybread,125+,ADFPA Open,M,195,137.5,242.5,575,SBD,Single-ply,1
Sheila Ward,60,Kansas State,F,162.5,87.5,157.5,407.5,SBD,Single-ply,1
S. Mehew,82.5,Kansas State,F,137.5,65,150,352.5,SBD,Single-ply,1
C. Hanna,67.5,Kansas State,M,155,120,165,440,SBD,Single-ply,1
R. Adams,75,Kansas State,M,210,145,230,585,SBD,Single-ply,1
G. Acinger,75,Kansas State,M,175,130,207.5,512.5,SBD,Single-ply,2
J. McLeod,82.5,Kansas State,M,250,170,252.5,672.5,SBD,Single-ply,1
M. Breault,82.5,Kansas State,M,237.5,132.5,247.5,617.5,SBD,Single-ply,2
R. Aeschliman,82.5,Kansas State,M,162.5,115,207.5,485,SBD,Single-ply,3
J. Curtis,90,Kansas State,M,232.5,152.5,250,635,SBD,Single-ply,1
Dennis Mogusar,90,Kansas State,M,200,150,237.5,587.5,SBD,Single-ply,2
E. Edison,100,Kansas State,M,182.5,195,195,572.5,SBD,Single-ply,1
S. Stone,100,Kansas State,M,,,,,SBD,Single-ply,DQ
Ken Ufford,110,Kansas State,M,265,205,325,795,SBD,Single-ply,1
J. Ayers,110,Kansas State,M,250,175,237.5,662.5,SBD,Single-ply,2
R. Pierce,110,Kansas State,M,215,150,272.5,637.5,SBD,Single-ply,3
M. Drybread,125,Kansas State,M,195,157.5,240,592.5,SBD,Single-ply,1
B. Drybread,125+,Kansas State,M,195,137.5,242.5,575,SBD,Single-ply,1
